{
    "skinList": [
        {
            "name": "Dr Mario1"
        },
        {
            "name": "Dr Mario2"
        },
        {
            "name": "Dr Mario3"
        },
        {
            "name": "Dr Mario4"
        },
        {
            "name": "Dr Mario5"
        },
        {
            "name": "Dr Mario6"
        },
        {
            "name": "Dr Mario7"
        },
        {
            "name": "Dr Mario8"
        }
    ],
    "colorData" : {
        "Dr Mario1" : {
            "ogColor" : [
                120, 121, 161, 1,
                231, 121, 185, 1,
                130, 173, 177, 1,
                187, 155, 143, 1,
                214, 215, 244, 1
            ],
            "colorRange" : [
                7.2, 20, 80, 1,
                54, 15, 60, 1,
                18, 30, 50, 1,
                3.6, 15, 60, 1,
                18, 15, 15, 1
            ]
        },
        "Dr Mario2" : {
            "ogColor" : [
                120, 121, 161, 1,
                231, 121, 185, 1,
                130, 173, 177, 1,
                187, 155, 143, 1,
                214, 215, 244, 1
            ],
            "colorRange" : [
                7.2, 20, 80, 1,
                54, 15, 60, 1,
                18, 30, 50, 1,
                3.6, 15, 60, 1,
                18, 15, 15, 1
            ]
        },
        "Dr Mario3" : {
            "ogColor" : [
                120, 121, 161, 1,
                231, 121, 185, 1,
                130, 173, 177, 1,
                187, 155, 143, 1,
                214, 215, 244, 1
            ],
            "colorRange" : [
                7.2, 20, 80, 1,
                54, 15, 60, 1,
                18, 30, 50, 1,
                3.6, 15, 60, 1,
                18, 15, 15, 1
            ]
        },
        "Dr Mario4" : {
            "ogColor" : [
                120, 121, 161, 1,
                231, 121, 185, 1,
                130, 173, 177, 1,
                187, 155, 143, 1,
                214, 215, 244, 1
            ],
            "colorRange" : [
                7.2, 20, 80, 1,
                54, 15, 60, 1,
                18, 30, 50, 1,
                3.6, 15, 60, 1,
                18, 15, 15, 1
            ]
        },
        "Dr Mario5" : {
            "ogColor" : [
                120, 121, 161, 1,
                231, 121, 185, 1,
                130, 173, 177, 1,
                187, 155, 143, 1,
                214, 215, 244, 1
            ],
            "colorRange" : [
                7.2, 20, 80, 1,
                54, 15, 60, 1,
                18, 30, 50, 1,
                3.6, 15, 60, 1,
                18, 15, 15, 1
            ]
        },
        "Dr Mario6" : {
            "ogColor" : [
                120, 121, 161, 1,
                231, 121, 185, 1,
                130, 173, 177, 1,
                187, 155, 143, 1,
                214, 215, 244, 1
            ],
            "colorRange" : [
                7.2, 20, 80, 1,
                54, 15, 60, 1,
                18, 30, 50, 1,
                3.6, 15, 60, 1,
                18, 15, 15, 1
            ]
        },
        "Dr Mario7" : {
            "ogColor" : [
                120, 121, 161, 1,
                231, 121, 185, 1,
                130, 173, 177, 1,
                187, 155, 143, 1,
                214, 215, 244, 1
            ],
            "colorRange" : [
                7.2, 20, 80, 1,
                54, 15, 60, 1,
                18, 30, 50, 1,
                3.6, 15, 60, 1,
                18, 15, 15, 1
            ]
        },
        "Dr Mario8" : {
            "ogColor" : [
                120, 121, 161, 1,
                231, 121, 185, 1,
                130, 173, 177, 1,
                187, 155, 143, 1,
                214, 215, 244, 1
            ],
            "colorRange" : [
                7.2, 20, 80, 1,
                54, 15, 60, 1,
                18, 30, 50, 1,
                3.6, 15, 60, 1,
                18, 15, 15, 1
            ]
        }
    },
    "scoreboard": {
        "neutral": {
            "x": 5,
            "y": 70,
            "scale": 4.3
        },
        "Dr Mario1": {
            "scale": 1
        },
        "Dr Mario2": {
            "scale": 1
        },
        "Dr Mario3": {
            "scale": 1
        },
        "Dr Mario4": {
            "scale": 1
        },
        "Dr Mario5": {
            "scale": 1
        },
        "Dr Mario6": {
            "scale": 1
        },
        "Dr Mario7": {
            "scale": 1
        },
        "Dr Mario8": {
            "scale": 1
        }
    },
    "vsScreen": {
        "neutral": {
            "x": -550,
            "y": 200,
            "scale": 1.35
        },
        "Dr Mario1": {
            "x": -495,
            "y": 240,
            "scale": 1.35
        },
        "Dr Mario2": {
            "x": -495,
            "y": 240,
            "scale": 1.35
        },
        "Dr Mario3": {
            "x": -495,
            "y": 240,
            "scale": 1.35
        },
        "Dr Mario4": {
            "x": -495,
            "y": 240,
            "scale": 1.35
        },
        "Dr Mario5": {
            "x": -495,
            "y": 240,
            "scale": 1.35
        },
        "Dr Mario6": {
            "x": -495,
            "y": 240,
            "scale": 1.35
        },
        "Dr Mario7": {
            "x": -495,
            "y": 240,
            "scale": 1.35
        },
        "Dr Mario8": {
            "x": -495,
            "y": 240,
            "scale": 1.35
        }
    },
    "gui": {
        "neutral": {
            "x": 5,
            "y": 33,
            "scale": 5
        },
        "Dr Mario1": {
            "x": 10,
            "y": 43,
            "scale": 4.8
        },
        "Dr Mario2": {
            "x": 10,
            "y": 43,
            "scale": 4.8
        },
        "Dr Mario3": {
            "x": 10,
            "y": 43,
            "scale": 4.8
        },
        "Dr Mario4": {
            "x": 10,
            "y": 43,
            "scale": 4.8
        },
        "Dr Mario5": {
            "x": 10,
            "y": 43,
            "scale": 4.8
        },
        "Dr Mario6": {
            "x": 10,
            "y": 43,
            "scale": 4.8
        },
        "Dr Mario7": {
            "x": 10,
            "y": 43,
            "scale": 4.8
        },
        "Dr Mario8": {
            "x": 10,
            "y": 43,
            "scale": 4.8
        }
    }
}
