{
   "skinList": [
       {
           "name": "Inkling1"
       },
       {
           "name": "Inkling2"
       },
       {
           "name": "Inkling3"
       },
       {
           "name": "Inkling4"
       },
       {
           "name": "Inkling5"
       },
       {
           "name": "Inkling6"
       },
       {
           "name": "Inkling7"
       },
       {
           "name": "Inkling8"
       }
   ],
   "colorData" : {
       "Inkling1" : {
           "ogColor" : [
               120, 121, 161, 1,
               231, 121, 185, 1,
               130, 173, 177, 1,
               187, 155, 143, 1,
               214, 215, 244, 1
           ],
           "colorRange" : [
               7.2, 20, 80, 1,
               54, 15, 60, 1,
               18, 30, 50, 1,
               3.6, 15, 60, 1,
               18, 15, 15, 1
           ]
       },
       "Inkling2" : {
           "ogColor" : [
               120, 121, 161, 1,
               231, 121, 185, 1,
               130, 173, 177, 1,
               187, 155, 143, 1,
               214, 215, 244, 1
           ],
           "colorRange" : [
               7.2, 20, 80, 1,
               54, 15, 60, 1,
               18, 30, 50, 1,
               3.6, 15, 60, 1,
               18, 15, 15, 1
           ]
       },
       "Inkling3" : {
           "ogColor" : [
               120, 121, 161, 1,
               231, 121, 185, 1,
               130, 173, 177, 1,
               187, 155, 143, 1,
               214, 215, 244, 1
           ],
           "colorRange" : [
               7.2, 20, 80, 1,
               54, 15, 60, 1,
               18, 30, 50, 1,
               3.6, 15, 60, 1,
               18, 15, 15, 1
           ]
       },
       "Inkling4" : {
           "ogColor" : [
               120, 121, 161, 1,
               231, 121, 185, 1,
               130, 173, 177, 1,
               187, 155, 143, 1,
               214, 215, 244, 1
           ],
           "colorRange" : [
               7.2, 20, 80, 1,
               54, 15, 60, 1,
               18, 30, 50, 1,
               3.6, 15, 60, 1,
               18, 15, 15, 1
           ]
       },
       "Inkling5" : {
           "ogColor" : [
               120, 121, 161, 1,
               231, 121, 185, 1,
               130, 173, 177, 1,
               187, 155, 143, 1,
               214, 215, 244, 1
           ],
           "colorRange" : [
               7.2, 20, 80, 1,
               54, 15, 60, 1,
               18, 30, 50, 1,
               3.6, 15, 60, 1,
               18, 15, 15, 1
           ]
       },
       "Inkling6" : {
           "ogColor" : [
               120, 121, 161, 1,
               231, 121, 185, 1,
               130, 173, 177, 1,
               187, 155, 143, 1,
               214, 215, 244, 1
           ],
           "colorRange" : [
               7.2, 20, 80, 1,
               54, 15, 60, 1,
               18, 30, 50, 1,
               3.6, 15, 60, 1,
               18, 15, 15, 1
           ]
       },
       "Inkling7" : {
           "ogColor" : [
               120, 121, 161, 1,
               231, 121, 185, 1,
               130, 173, 177, 1,
               187, 155, 143, 1,
               214, 215, 244, 1
           ],
           "colorRange" : [
               7.2, 20, 80, 1,
               54, 15, 60, 1,
               18, 30, 50, 1,
               3.6, 15, 60, 1,
               18, 15, 15, 1
           ]
       },
       "Inkling8" : {
           "ogColor" : [
               120, 121, 161, 1,
               231, 121, 185, 1,
               130, 173, 177, 1,
               187, 155, 143, 1,
               214, 215, 244, 1
           ],
           "colorRange" : [
               7.2, 20, 80, 1,
               54, 15, 60, 1,
               18, 30, 50, 1,
               3.6, 15, 60, 1,
               18, 15, 15, 1
           ]
       }
   },
   "scoreboard": {
       "neutral": {
           "x": 5,
           "y": 70,
           "scale": 4.3
       },
       "Inkling1": {
           "scale": 1
       },
       "Inkling2": {
           "scale": 1
       },
       "Inkling3": {
           "scale": 1
       },
       "Inkling4": {
           "scale": 1
       },
       "Inkling5": {
           "scale": 1
       },
       "Inkling6": {
           "scale": 1
       },
       "Inkling7": {
           "scale": 1
       },
       "Inkling8": {
           "scale": 1
       }
   },
   "vsScreen": {
       "neutral": {
           "x": -550,
           "y": 200,
           "scale": 1.35
       },
       "Inkling1": {
           "x": -495,
           "y": 240,
           "scale": 1.35
       },
       "Inkling2": {
           "x": -495,
           "y": 240,
           "scale": 1.35
       },
       "Inkling3": {
           "x": -495,
           "y": 240,
           "scale": 1.35
       },
       "Inkling4": {
           "x": -495,
           "y": 240,
           "scale": 1.35
       },
       "Inkling5": {
           "x": -495,
           "y": 240,
           "scale": 1.35
       },
       "Inkling6": {
           "x": -495,
           "y": 240,
           "scale": 1.35
       },
       "Inkling7": {
           "x": -495,
           "y": 240,
           "scale": 1.35
       },
       "Inkling8": {
           "x": -495,
           "y": 240,
           "scale": 1.35
       }
   },
   "gui": {
       "neutral": {
           "x": 5,
           "y": 33,
           "scale": 5
       },
       "Inkling1": {
           "x": 10,
           "y": 43,
           "scale": 4.8
       },
       "Inkling2": {
           "x": 10,
           "y": 43,
           "scale": 4.8
       },
       "Inkling3": {
           "x": 10,
           "y": 43,
           "scale": 4.8
       },
       "Inkling4": {
           "x": 10,
           "y": 43,
           "scale": 4.8
       },
       "Inkling5": {
           "x": 10,
           "y": 43,
           "scale": 4.8
       },
       "Inkling6": {
           "x": 10,
           "y": 43,
           "scale": 4.8
       },
       "Inkling7": {
           "x": 10,
           "y": 43,
           "scale": 4.8
       },
       "Inkling8": {
           "x": 10,
           "y": 43,
           "scale": 4.8
       }
   }
}
