{
    "skinList": [
        {
            "name": "Piranha Plant1"
        },
        {
            "name": "Piranha Plant2"
        },
        {
            "name": "Piranha Plant3"
        },
        {
            "name": "Piranha Plant4"
        },
        {
            "name": "Piranha Plant5"
        },
        {
            "name": "Piranha Plant6"
        },
        {
            "name": "Piranha Plant7"
        },
        {
            "name": "Piranha Plant8"
        }
    ],
    "colorData" : {
        "Piranha Plant1" : {
            "ogColor" : [
                120, 121, 161, 1,
                231, 121, 185, 1,
                130, 173, 177, 1,
                187, 155, 143, 1,
                214, 215, 244, 1
            ],
            "colorRange" : [
                7.2, 20, 80, 1,
                54, 15, 60, 1,
                18, 30, 50, 1,
                3.6, 15, 60, 1,
                18, 15, 15, 1
            ]
        },
        "Piranha Plant2" : {
            "ogColor" : [
                120, 121, 161, 1,
                231, 121, 185, 1,
                130, 173, 177, 1,
                187, 155, 143, 1,
                214, 215, 244, 1
            ],
            "colorRange" : [
                7.2, 20, 80, 1,
                54, 15, 60, 1,
                18, 30, 50, 1,
                3.6, 15, 60, 1,
                18, 15, 15, 1
            ]
        },
        "Piranha Plant3" : {
            "ogColor" : [
                120, 121, 161, 1,
                231, 121, 185, 1,
                130, 173, 177, 1,
                187, 155, 143, 1,
                214, 215, 244, 1
            ],
            "colorRange" : [
                7.2, 20, 80, 1,
                54, 15, 60, 1,
                18, 30, 50, 1,
                3.6, 15, 60, 1,
                18, 15, 15, 1
            ]
        },
        "Piranha Plant4" : {
            "ogColor" : [
                120, 121, 161, 1,
                231, 121, 185, 1,
                130, 173, 177, 1,
                187, 155, 143, 1,
                214, 215, 244, 1
            ],
            "colorRange" : [
                7.2, 20, 80, 1,
                54, 15, 60, 1,
                18, 30, 50, 1,
                3.6, 15, 60, 1,
                18, 15, 15, 1
            ]
        },
        "Piranha Plant5" : {
            "ogColor" : [
                120, 121, 161, 1,
                231, 121, 185, 1,
                130, 173, 177, 1,
                187, 155, 143, 1,
                214, 215, 244, 1
            ],
            "colorRange" : [
                7.2, 20, 80, 1,
                54, 15, 60, 1,
                18, 30, 50, 1,
                3.6, 15, 60, 1,
                18, 15, 15, 1
            ]
        },
        "Piranha Plant6" : {
            "ogColor" : [
                120, 121, 161, 1,
                231, 121, 185, 1,
                130, 173, 177, 1,
                187, 155, 143, 1,
                214, 215, 244, 1
            ],
            "colorRange" : [
                7.2, 20, 80, 1,
                54, 15, 60, 1,
                18, 30, 50, 1,
                3.6, 15, 60, 1,
                18, 15, 15, 1
            ]
        },
        "Piranha Plant7" : {
            "ogColor" : [
                120, 121, 161, 1,
                231, 121, 185, 1,
                130, 173, 177, 1,
                187, 155, 143, 1,
                214, 215, 244, 1
            ],
            "colorRange" : [
                7.2, 20, 80, 1,
                54, 15, 60, 1,
                18, 30, 50, 1,
                3.6, 15, 60, 1,
                18, 15, 15, 1
            ]
        },
        "Piranha Plant8" : {
            "ogColor" : [
                120, 121, 161, 1,
                231, 121, 185, 1,
                130, 173, 177, 1,
                187, 155, 143, 1,
                214, 215, 244, 1
            ],
            "colorRange" : [
                7.2, 20, 80, 1,
                54, 15, 60, 1,
                18, 30, 50, 1,
                3.6, 15, 60, 1,
                18, 15, 15, 1
            ]
        }
    },
    "scoreboard": {
        "neutral": {
            "x": 5,
            "y": 70,
            "scale": 4.3
        },
        "Piranha Plant1": {
            "scale": 1
        },
        "Piranha Plant2": {
            "scale": 1
        },
        "Piranha Plant3": {
            "scale": 1
        },
        "Piranha Plant4": {
            "scale": 1
        },
        "Piranha Plant5": {
            "scale": 1
        },
        "Piranha Plant6": {
            "scale": 1
        },
        "Piranha Plant7": {
            "scale": 1
        },
        "Piranha Plant8": {
            "scale": 1
        }
    },
    "vsScreen": {
        "neutral": {
            "x": -550,
            "y": 200,
            "scale": 1.35
        },
        "Piranha Plant1": {
            "x": -495,
            "y": 240,
            "scale": 1.35
        },
        "Piranha Plant2": {
            "x": -495,
            "y": 240,
            "scale": 1.35
        },
        "Piranha Plant3": {
            "x": -495,
            "y": 240,
            "scale": 1.35
        },
        "Piranha Plant4": {
            "x": -495,
            "y": 240,
            "scale": 1.35
        },
        "Piranha Plant5": {
            "x": -495,
            "y": 240,
            "scale": 1.35
        },
        "Piranha Plant6": {
            "x": -495,
            "y": 240,
            "scale": 1.35
        },
        "Piranha Plant7": {
            "x": -495,
            "y": 240,
            "scale": 1.35
        },
        "Piranha Plant8": {
            "x": -495,
            "y": 240,
            "scale": 1.35
        }
    },
    "gui": {
        "neutral": {
            "x": 5,
            "y": 33,
            "scale": 5
        },
        "Piranha Plant1": {
            "x": 10,
            "y": 43,
            "scale": 4.8
        },
        "Piranha Plant2": {
            "x": 10,
            "y": 43,
            "scale": 4.8
        },
        "Piranha Plant3": {
            "x": 10,
            "y": 43,
            "scale": 4.8
        },
        "Piranha Plant4": {
            "x": 10,
            "y": 43,
            "scale": 4.8
        },
        "Piranha Plant5": {
            "x": 10,
            "y": 43,
            "scale": 4.8
        },
        "Piranha Plant6": {
            "x": 10,
            "y": 43,
            "scale": 4.8
        },
        "Piranha Plant7": {
            "x": 10,
            "y": 43,
            "scale": 4.8
        },
        "Piranha Plant8": {
            "x": 10,
            "y": 43,
            "scale": 4.8
        }
    }
}
