{
    "skinList": [
        {
            "name": "Shulk1"
        },
        {
            "name": "Shulk2"
        },
        {
            "name": "Shulk3"
        },
        {
            "name": "Shulk4"
        },
        {
            "name": "Shulk5"
        },
        {
            "name": "Shulk6"
        },
        {
            "name": "Shulk7"
        },
        {
            "name": "Shulk8"
        }
    ],
    "colorData" : {
        "Shulk1" : {
            "ogColor" : [
                120, 121, 161, 1,
                231, 121, 185, 1,
                130, 173, 177, 1,
                187, 155, 143, 1,
                214, 215, 244, 1
            ],
            "colorRange" : [
                7.2, 20, 80, 1,
                54, 15, 60, 1,
                18, 30, 50, 1,
                3.6, 15, 60, 1,
                18, 15, 15, 1
            ]
        },
        "Shulk2" : {
            "ogColor" : [
                120, 121, 161, 1,
                231, 121, 185, 1,
                130, 173, 177, 1,
                187, 155, 143, 1,
                214, 215, 244, 1
            ],
            "colorRange" : [
                7.2, 20, 80, 1,
                54, 15, 60, 1,
                18, 30, 50, 1,
                3.6, 15, 60, 1,
                18, 15, 15, 1
            ]
        },
        "Shulk3" : {
            "ogColor" : [
                120, 121, 161, 1,
                231, 121, 185, 1,
                130, 173, 177, 1,
                187, 155, 143, 1,
                214, 215, 244, 1
            ],
            "colorRange" : [
                7.2, 20, 80, 1,
                54, 15, 60, 1,
                18, 30, 50, 1,
                3.6, 15, 60, 1,
                18, 15, 15, 1
            ]
        },
        "Shulk4" : {
            "ogColor" : [
                120, 121, 161, 1,
                231, 121, 185, 1,
                130, 173, 177, 1,
                187, 155, 143, 1,
                214, 215, 244, 1
            ],
            "colorRange" : [
                7.2, 20, 80, 1,
                54, 15, 60, 1,
                18, 30, 50, 1,
                3.6, 15, 60, 1,
                18, 15, 15, 1
            ]
        },
        "Shulk5" : {
            "ogColor" : [
                120, 121, 161, 1,
                231, 121, 185, 1,
                130, 173, 177, 1,
                187, 155, 143, 1,
                214, 215, 244, 1
            ],
            "colorRange" : [
                7.2, 20, 80, 1,
                54, 15, 60, 1,
                18, 30, 50, 1,
                3.6, 15, 60, 1,
                18, 15, 15, 1
            ]
        },
        "Shulk6" : {
            "ogColor" : [
                120, 121, 161, 1,
                231, 121, 185, 1,
                130, 173, 177, 1,
                187, 155, 143, 1,
                214, 215, 244, 1
            ],
            "colorRange" : [
                7.2, 20, 80, 1,
                54, 15, 60, 1,
                18, 30, 50, 1,
                3.6, 15, 60, 1,
                18, 15, 15, 1
            ]
        },
        "Shulk7" : {
            "ogColor" : [
                120, 121, 161, 1,
                231, 121, 185, 1,
                130, 173, 177, 1,
                187, 155, 143, 1,
                214, 215, 244, 1
            ],
            "colorRange" : [
                7.2, 20, 80, 1,
                54, 15, 60, 1,
                18, 30, 50, 1,
                3.6, 15, 60, 1,
                18, 15, 15, 1
            ]
        },
        "Shulk8" : {
            "ogColor" : [
                120, 121, 161, 1,
                231, 121, 185, 1,
                130, 173, 177, 1,
                187, 155, 143, 1,
                214, 215, 244, 1
            ],
            "colorRange" : [
                7.2, 20, 80, 1,
                54, 15, 60, 1,
                18, 30, 50, 1,
                3.6, 15, 60, 1,
                18, 15, 15, 1
            ]
        }
    },
    "scoreboard": {
        "neutral": {
            "x": 5,
            "y": 70,
            "scale": 4.3
        },
        "Shulk1": {
            "scale": 1
        },
        "Shulk2": {
            "scale": 1
        },
        "Shulk3": {
            "scale": 1
        },
        "Shulk4": {
            "scale": 1
        },
        "Shulk5": {
            "scale": 1
        },
        "Shulk6": {
            "scale": 1
        },
        "Shulk7": {
            "scale": 1
        },
        "Shulk8": {
            "scale": 1
        }
    },
    "vsScreen": {
        "neutral": {
            "x": -550,
            "y": 200,
            "scale": 1.35
        },
        "Shulk1": {
            "x": -495,
            "y": 240,
            "scale": 1.35
        },
        "Shulk2": {
            "x": -495,
            "y": 240,
            "scale": 1.35
        },
        "Shulk3": {
            "x": -495,
            "y": 240,
            "scale": 1.35
        },
        "Shulk4": {
            "x": -495,
            "y": 240,
            "scale": 1.35
        },
        "Shulk5": {
            "x": -495,
            "y": 240,
            "scale": 1.35
        },
        "Shulk6": {
            "x": -495,
            "y": 240,
            "scale": 1.35
        },
        "Shulk7": {
            "x": -495,
            "y": 240,
            "scale": 1.35
        },
        "Shulk8": {
            "x": -495,
            "y": 240,
            "scale": 1.35
        }
    },
    "gui": {
        "neutral": {
            "x": 5,
            "y": 33,
            "scale": 5
        },
        "Shulk1": {
            "x": 10,
            "y": 43,
            "scale": 4.8
        },
        "Shulk2": {
            "x": 10,
            "y": 43,
            "scale": 4.8
        },
        "Shulk3": {
            "x": 10,
            "y": 43,
            "scale": 4.8
        },
        "Shulk4": {
            "x": 10,
            "y": 43,
            "scale": 4.8
        },
        "Shulk5": {
            "x": 10,
            "y": 43,
            "scale": 4.8
        },
        "Shulk6": {
            "x": 10,
            "y": 43,
            "scale": 4.8
        },
        "Shulk7": {
            "x": 10,
            "y": 43,
            "scale": 4.8
        },
        "Shulk8": {
            "x": 10,
            "y": 43,
            "scale": 4.8
        }
    }
}
