{
    "skinList": [
        {
            "name": "Bowser1"
        },
        {
            "name": "Bowser2"
        },
        {
            "name": "Bowser3"
        },
        {
            "name": "Bowser4"
        },
        {
            "name": "Bowser5"
        },
        {
            "name": "Bowser6"
        },
        {
            "name": "Bowser7"
        },
        {
            "name": "Bowser8"
        }
    ],
    "colorData" : {
        "Bowser1" : {
            "ogColor" : [
                120, 121, 161, 1,
                231, 121, 185, 1,
                130, 173, 177, 1,
                187, 155, 143, 1,
                214, 215, 244, 1
            ],
            "colorRange" : [
                7.2, 20, 80, 1,
                54, 15, 60, 1,
                18, 30, 50, 1,
                3.6, 15, 60, 1,
                18, 15, 15, 1
            ]
        },
        "Bowser2" : {
            "ogColor" : [
                120, 121, 161, 1,
                231, 121, 185, 1,
                130, 173, 177, 1,
                187, 155, 143, 1,
                214, 215, 244, 1
            ],
            "colorRange" : [
                7.2, 20, 80, 1,
                54, 15, 60, 1,
                18, 30, 50, 1,
                3.6, 15, 60, 1,
                18, 15, 15, 1
            ]
        },
        "Bowser3" : {
            "ogColor" : [
                120, 121, 161, 1,
                231, 121, 185, 1,
                130, 173, 177, 1,
                187, 155, 143, 1,
                214, 215, 244, 1
            ],
            "colorRange" : [
                7.2, 20, 80, 1,
                54, 15, 60, 1,
                18, 30, 50, 1,
                3.6, 15, 60, 1,
                18, 15, 15, 1
            ]
        },
        "Bowser4" : {
            "ogColor" : [
                120, 121, 161, 1,
                231, 121, 185, 1,
                130, 173, 177, 1,
                187, 155, 143, 1,
                214, 215, 244, 1
            ],
            "colorRange" : [
                7.2, 20, 80, 1,
                54, 15, 60, 1,
                18, 30, 50, 1,
                3.6, 15, 60, 1,
                18, 15, 15, 1
            ]
        },
        "Bowser5" : {
            "ogColor" : [
                120, 121, 161, 1,
                231, 121, 185, 1,
                130, 173, 177, 1,
                187, 155, 143, 1,
                214, 215, 244, 1
            ],
            "colorRange" : [
                7.2, 20, 80, 1,
                54, 15, 60, 1,
                18, 30, 50, 1,
                3.6, 15, 60, 1,
                18, 15, 15, 1
            ]
        },
        "Bowser6" : {
            "ogColor" : [
                120, 121, 161, 1,
                231, 121, 185, 1,
                130, 173, 177, 1,
                187, 155, 143, 1,
                214, 215, 244, 1
            ],
            "colorRange" : [
                7.2, 20, 80, 1,
                54, 15, 60, 1,
                18, 30, 50, 1,
                3.6, 15, 60, 1,
                18, 15, 15, 1
            ]
        },
        "Bowser7" : {
            "ogColor" : [
                120, 121, 161, 1,
                231, 121, 185, 1,
                130, 173, 177, 1,
                187, 155, 143, 1,
                214, 215, 244, 1
            ],
            "colorRange" : [
                7.2, 20, 80, 1,
                54, 15, 60, 1,
                18, 30, 50, 1,
                3.6, 15, 60, 1,
                18, 15, 15, 1
            ]
        },
        "Bowser8" : {
            "ogColor" : [
                120, 121, 161, 1,
                231, 121, 185, 1,
                130, 173, 177, 1,
                187, 155, 143, 1,
                214, 215, 244, 1
            ],
            "colorRange" : [
                7.2, 20, 80, 1,
                54, 15, 60, 1,
                18, 30, 50, 1,
                3.6, 15, 60, 1,
                18, 15, 15, 1
            ]
        }
    },
    "scoreboard": {
        "neutral": {
            "scale": 1
        },
        "Bowser1": {
            "scale": 1
        },
        "Bowser2": {
            "scale": 1
        },
        "Bowser3": {
            "scale": 1
        },
        "Bowser4": {
            "scale": 1
        },
        "Bowser5": {
            "scale": 1
        },
        "Bowser6": {
            "scale": 1
        },
        "Bowser7": {
            "scale": 1
        },
        "Bowser8": {
            "scale": 1
        }
    },
    "vsScreen": {
        "neutral": {
            "x": -550,
            "y": 200,
            "scale": 1.35
        },
        "Bowser1": {
            "x": -495,
            "y": 240,
            "scale": 1.35
        },
        "Bowser2": {
            "x": -495,
            "y": 240,
            "scale": 1.35
        },
        "Bowser3": {
            "x": -495,
            "y": 240,
            "scale": 1.35
        },
        "Bowser4": {
            "x": -495,
            "y": 240,
            "scale": 1.35
        },
        "Bowser5": {
            "x": -495,
            "y": 240,
            "scale": 1.35
        },
        "Bowser6": {
            "x": -495,
            "y": 240,
            "scale": 1.35
        },
        "Bowser7": {
            "x": -495,
            "y": 240,
            "scale": 1.35
        },
        "Bowser8": {
            "x": -495,
            "y": 240,
            "scale": 1.35
        }
    },
    "gui": {
        "neutral": {
            "x": 5,
            "y": 33,
            "scale": 5
        },
        "Bowser1": {
            "x": 10,
            "y": 43,
            "scale": 4.8
        },
        "Bowser2": {
            "x": 10,
            "y": 43,
            "scale": 4.8
        },
        "Bowser3": {
            "x": 10,
            "y": 43,
            "scale": 4.8
        },
        "Bowser4": {
            "x": 10,
            "y": 43,
            "scale": 4.8
        },
        "Bowser5": {
            "x": 10,
            "y": 43,
            "scale": 4.8
        },
        "Bowser6": {
            "x": 10,
            "y": 43,
            "scale": 4.8
        },
        "Bowser7": {
            "x": 10,
            "y": 43,
            "scale": 4.8
        },
        "Bowser8": {
            "x": 10,
            "y": 43,
            "scale": 4.8
        }
    }
}
