{
    "skinList": [
        {
            "name": "Pit1"
        },
        {
            "name": "Pit2"
        },
        {
            "name": "Pit3"
        },
        {
            "name": "Pit4"
        },
        {
            "name": "Pit5"
        },
        {
            "name": "Pit6"
        },
        {
            "name": "Pit7"
        },
        {
            "name": "Pit8"
        }
    ],
    "colorData" : {
        "Pit1" : {
            "ogColor" : [
                120, 121, 161, 1,
                231, 121, 185, 1,
                130, 173, 177, 1,
                187, 155, 143, 1,
                214, 215, 244, 1
            ],
            "colorRange" : [
                7.2, 20, 80, 1,
                54, 15, 60, 1,
                18, 30, 50, 1,
                3.6, 15, 60, 1,
                18, 15, 15, 1
            ]
        },
        "Pit2" : {
            "ogColor" : [
                120, 121, 161, 1,
                231, 121, 185, 1,
                130, 173, 177, 1,
                187, 155, 143, 1,
                214, 215, 244, 1
            ],
            "colorRange" : [
                7.2, 20, 80, 1,
                54, 15, 60, 1,
                18, 30, 50, 1,
                3.6, 15, 60, 1,
                18, 15, 15, 1
            ]
        },
        "Pit3" : {
            "ogColor" : [
                120, 121, 161, 1,
                231, 121, 185, 1,
                130, 173, 177, 1,
                187, 155, 143, 1,
                214, 215, 244, 1
            ],
            "colorRange" : [
                7.2, 20, 80, 1,
                54, 15, 60, 1,
                18, 30, 50, 1,
                3.6, 15, 60, 1,
                18, 15, 15, 1
            ]
        },
        "Pit4" : {
            "ogColor" : [
                120, 121, 161, 1,
                231, 121, 185, 1,
                130, 173, 177, 1,
                187, 155, 143, 1,
                214, 215, 244, 1
            ],
            "colorRange" : [
                7.2, 20, 80, 1,
                54, 15, 60, 1,
                18, 30, 50, 1,
                3.6, 15, 60, 1,
                18, 15, 15, 1
            ]
        },
        "Pit5" : {
            "ogColor" : [
                120, 121, 161, 1,
                231, 121, 185, 1,
                130, 173, 177, 1,
                187, 155, 143, 1,
                214, 215, 244, 1
            ],
            "colorRange" : [
                7.2, 20, 80, 1,
                54, 15, 60, 1,
                18, 30, 50, 1,
                3.6, 15, 60, 1,
                18, 15, 15, 1
            ]
        },
        "Pit6" : {
            "ogColor" : [
                120, 121, 161, 1,
                231, 121, 185, 1,
                130, 173, 177, 1,
                187, 155, 143, 1,
                214, 215, 244, 1
            ],
            "colorRange" : [
                7.2, 20, 80, 1,
                54, 15, 60, 1,
                18, 30, 50, 1,
                3.6, 15, 60, 1,
                18, 15, 15, 1
            ]
        },
        "Pit7" : {
            "ogColor" : [
                120, 121, 161, 1,
                231, 121, 185, 1,
                130, 173, 177, 1,
                187, 155, 143, 1,
                214, 215, 244, 1
            ],
            "colorRange" : [
                7.2, 20, 80, 1,
                54, 15, 60, 1,
                18, 30, 50, 1,
                3.6, 15, 60, 1,
                18, 15, 15, 1
            ]
        },
        "Pit8" : {
            "ogColor" : [
                120, 121, 161, 1,
                231, 121, 185, 1,
                130, 173, 177, 1,
                187, 155, 143, 1,
                214, 215, 244, 1
            ],
            "colorRange" : [
                7.2, 20, 80, 1,
                54, 15, 60, 1,
                18, 30, 50, 1,
                3.6, 15, 60, 1,
                18, 15, 15, 1
            ]
        }
    },
    "scoreboard": {
        "neutral": {
            "x": 5,
            "y": 70,
            "scale": 4.3
        },
        "Pit1": {
            "scale": 1
        },
        "Pit2": {
            "scale": 1
        },
        "Pit3": {
            "scale": 1
        },
        "Pit4": {
            "scale": 1
        },
        "Pit5": {
            "scale": 1
        },
        "Pit6": {
            "scale": 1
        },
        "Pit7": {
            "scale": 1
        },
        "Pit8": {
            "scale": 1
        }
    },
    "vsScreen": {
        "neutral": {
            "x": -550,
            "y": 200,
            "scale": 1.35
        },
        "Pit1": {
            "x": -495,
            "y": 240,
            "scale": 1.35
        },
        "Pit2": {
            "x": -495,
            "y": 240,
            "scale": 1.35
        },
        "Pit3": {
            "x": -495,
            "y": 240,
            "scale": 1.35
        },
        "Pit4": {
            "x": -495,
            "y": 240,
            "scale": 1.35
        },
        "Pit5": {
            "x": -495,
            "y": 240,
            "scale": 1.35
        },
        "Pit6": {
            "x": -495,
            "y": 240,
            "scale": 1.35
        },
        "Pit7": {
            "x": -495,
            "y": 240,
            "scale": 1.35
        },
        "Pit8": {
            "x": -495,
            "y": 240,
            "scale": 1.35
        }
    },
    "gui": {
        "neutral": {
            "x": 5,
            "y": 33,
            "scale": 5
        },
        "Pit1": {
            "x": 10,
            "y": 43,
            "scale": 4.8
        },
        "Pit2": {
            "x": 10,
            "y": 43,
            "scale": 4.8
        },
        "Pit3": {
            "x": 10,
            "y": 43,
            "scale": 4.8
        },
        "Pit4": {
            "x": 10,
            "y": 43,
            "scale": 4.8
        },
        "Pit5": {
            "x": 10,
            "y": 43,
            "scale": 4.8
        },
        "Pit6": {
            "x": 10,
            "y": 43,
            "scale": 4.8
        },
        "Pit7": {
            "x": 10,
            "y": 43,
            "scale": 4.8
        },
        "Pit8": {
            "x": 10,
            "y": 43,
            "scale": 4.8
        }
    }
}
