{
    "skinList": [
        {
            "name": "Cloud1"
        },
        {
            "name": "Cloud2"
        },
        {
            "name": "Cloud3"
        },
        {
            "name": "Cloud4"
        },
        {
            "name": "Cloud5"
        },
        {
            "name": "Cloud6"
        },
        {
            "name": "Cloud7"
        },
        {
            "name": "Cloud8"
        }
    ],
    "colorData" : {
        "Cloud1" : {
            "ogColor" : [
                120, 121, 161, 1,
                231, 121, 185, 1,
                130, 173, 177, 1,
                187, 155, 143, 1,
                214, 215, 244, 1
            ],
            "colorRange" : [
                7.2, 20, 80, 1,
                54, 15, 60, 1,
                18, 30, 50, 1,
                3.6, 15, 60, 1,
                18, 15, 15, 1
            ]
        },
        "Cloud2" : {
            "ogColor" : [
                120, 121, 161, 1,
                231, 121, 185, 1,
                130, 173, 177, 1,
                187, 155, 143, 1,
                214, 215, 244, 1
            ],
            "colorRange" : [
                7.2, 20, 80, 1,
                54, 15, 60, 1,
                18, 30, 50, 1,
                3.6, 15, 60, 1,
                18, 15, 15, 1
            ]
        },
        "Cloud3" : {
            "ogColor" : [
                120, 121, 161, 1,
                231, 121, 185, 1,
                130, 173, 177, 1,
                187, 155, 143, 1,
                214, 215, 244, 1
            ],
            "colorRange" : [
                7.2, 20, 80, 1,
                54, 15, 60, 1,
                18, 30, 50, 1,
                3.6, 15, 60, 1,
                18, 15, 15, 1
            ]
        },
        "Cloud4" : {
            "ogColor" : [
                120, 121, 161, 1,
                231, 121, 185, 1,
                130, 173, 177, 1,
                187, 155, 143, 1,
                214, 215, 244, 1
            ],
            "colorRange" : [
                7.2, 20, 80, 1,
                54, 15, 60, 1,
                18, 30, 50, 1,
                3.6, 15, 60, 1,
                18, 15, 15, 1
            ]
        },
        "Cloud5" : {
            "ogColor" : [
                120, 121, 161, 1,
                231, 121, 185, 1,
                130, 173, 177, 1,
                187, 155, 143, 1,
                214, 215, 244, 1
            ],
            "colorRange" : [
                7.2, 20, 80, 1,
                54, 15, 60, 1,
                18, 30, 50, 1,
                3.6, 15, 60, 1,
                18, 15, 15, 1
            ]
        },
        "Cloud6" : {
            "ogColor" : [
                120, 121, 161, 1,
                231, 121, 185, 1,
                130, 173, 177, 1,
                187, 155, 143, 1,
                214, 215, 244, 1
            ],
            "colorRange" : [
                7.2, 20, 80, 1,
                54, 15, 60, 1,
                18, 30, 50, 1,
                3.6, 15, 60, 1,
                18, 15, 15, 1
            ]
        },
        "Cloud7" : {
            "ogColor" : [
                120, 121, 161, 1,
                231, 121, 185, 1,
                130, 173, 177, 1,
                187, 155, 143, 1,
                214, 215, 244, 1
            ],
            "colorRange" : [
                7.2, 20, 80, 1,
                54, 15, 60, 1,
                18, 30, 50, 1,
                3.6, 15, 60, 1,
                18, 15, 15, 1
            ]
        },
        "Cloud8" : {
            "ogColor" : [
                120, 121, 161, 1,
                231, 121, 185, 1,
                130, 173, 177, 1,
                187, 155, 143, 1,
                214, 215, 244, 1
            ],
            "colorRange" : [
                7.2, 20, 80, 1,
                54, 15, 60, 1,
                18, 30, 50, 1,
                3.6, 15, 60, 1,
                18, 15, 15, 1
            ]
        }
    },
    "scoreboard": {
        "neutral": {
            "x": 5,
            "y": 70,
            "scale": 4.3
        },
        "Cloud1": {
            "scale": 1
        },
        "Cloud2": {
            "scale": 1
        },
        "Cloud3": {
            "scale": 1
        },
        "Cloud4": {
            "scale": 1
        },
        "Cloud5": {
            "scale": 1
        },
        "Cloud6": {
            "scale": 1
        },
        "Cloud7": {
            "scale": 1
        },
        "Cloud8": {
            "scale": 1
        }
    },
    "vsScreen": {
        "neutral": {
            "x": -550,
            "y": 200,
            "scale": 1.35
        },
        "Cloud1": {
            "x": -495,
            "y": 240,
            "scale": 1.35
        },
        "Cloud2": {
            "x": -495,
            "y": 240,
            "scale": 1.35
        },
        "Cloud3": {
            "x": -495,
            "y": 240,
            "scale": 1.35
        },
        "Cloud4": {
            "x": -495,
            "y": 240,
            "scale": 1.35
        },
        "Cloud5": {
            "x": -495,
            "y": 240,
            "scale": 1.35
        },
        "Cloud6": {
            "x": -495,
            "y": 240,
            "scale": 1.35
        },
        "Cloud7": {
            "x": -495,
            "y": 240,
            "scale": 1.35
        },
        "Cloud8": {
            "x": -495,
            "y": 240,
            "scale": 1.35
        }
    },
    "gui": {
        "neutral": {
            "x": 5,
            "y": 33,
            "scale": 5
        },
        "Cloud1": {
            "x": 10,
            "y": 43,
            "scale": 4.8
        },
        "Cloud2": {
            "x": 10,
            "y": 43,
            "scale": 4.8
        },
        "Cloud3": {
            "x": 10,
            "y": 43,
            "scale": 4.8
        },
        "Cloud4": {
            "x": 10,
            "y": 43,
            "scale": 4.8
        },
        "Cloud5": {
            "x": 10,
            "y": 43,
            "scale": 4.8
        },
        "Cloud6": {
            "x": 10,
            "y": 43,
            "scale": 4.8
        },
        "Cloud7": {
            "x": 10,
            "y": 43,
            "scale": 4.8
        },
        "Cloud8": {
            "x": 10,
            "y": 43,
            "scale": 4.8
        }
    }
}
