{
    "skinList": [
        {
            "name": "Lucas1"
        },
        {
            "name": "Lucas2"
        },
        {
            "name": "Lucas3"
        },
        {
            "name": "Lucas4"
        },
        {
            "name": "Lucas5"
        },
        {
            "name": "Lucas6"
        },
        {
            "name": "Lucas7"
        },
        {
            "name": "Lucas8"
        }
    ],
    "colorData" : {
        "Lucas1" : {
            "ogColor" : [
                120, 121, 161, 1,
                231, 121, 185, 1,
                130, 173, 177, 1,
                187, 155, 143, 1,
                214, 215, 244, 1
            ],
            "colorRange" : [
                7.2, 20, 80, 1,
                54, 15, 60, 1,
                18, 30, 50, 1,
                3.6, 15, 60, 1,
                18, 15, 15, 1
            ]
        },
        "Lucas2" : {
            "ogColor" : [
                120, 121, 161, 1,
                231, 121, 185, 1,
                130, 173, 177, 1,
                187, 155, 143, 1,
                214, 215, 244, 1
            ],
            "colorRange" : [
                7.2, 20, 80, 1,
                54, 15, 60, 1,
                18, 30, 50, 1,
                3.6, 15, 60, 1,
                18, 15, 15, 1
            ]
        },
        "Lucas3" : {
            "ogColor" : [
                120, 121, 161, 1,
                231, 121, 185, 1,
                130, 173, 177, 1,
                187, 155, 143, 1,
                214, 215, 244, 1
            ],
            "colorRange" : [
                7.2, 20, 80, 1,
                54, 15, 60, 1,
                18, 30, 50, 1,
                3.6, 15, 60, 1,
                18, 15, 15, 1
            ]
        },
        "Lucas4" : {
            "ogColor" : [
                120, 121, 161, 1,
                231, 121, 185, 1,
                130, 173, 177, 1,
                187, 155, 143, 1,
                214, 215, 244, 1
            ],
            "colorRange" : [
                7.2, 20, 80, 1,
                54, 15, 60, 1,
                18, 30, 50, 1,
                3.6, 15, 60, 1,
                18, 15, 15, 1
            ]
        },
        "Lucas5" : {
            "ogColor" : [
                120, 121, 161, 1,
                231, 121, 185, 1,
                130, 173, 177, 1,
                187, 155, 143, 1,
                214, 215, 244, 1
            ],
            "colorRange" : [
                7.2, 20, 80, 1,
                54, 15, 60, 1,
                18, 30, 50, 1,
                3.6, 15, 60, 1,
                18, 15, 15, 1
            ]
        },
        "Lucas6" : {
            "ogColor" : [
                120, 121, 161, 1,
                231, 121, 185, 1,
                130, 173, 177, 1,
                187, 155, 143, 1,
                214, 215, 244, 1
            ],
            "colorRange" : [
                7.2, 20, 80, 1,
                54, 15, 60, 1,
                18, 30, 50, 1,
                3.6, 15, 60, 1,
                18, 15, 15, 1
            ]
        },
        "Lucas7" : {
            "ogColor" : [
                120, 121, 161, 1,
                231, 121, 185, 1,
                130, 173, 177, 1,
                187, 155, 143, 1,
                214, 215, 244, 1
            ],
            "colorRange" : [
                7.2, 20, 80, 1,
                54, 15, 60, 1,
                18, 30, 50, 1,
                3.6, 15, 60, 1,
                18, 15, 15, 1
            ]
        },
        "Lucas8" : {
            "ogColor" : [
                120, 121, 161, 1,
                231, 121, 185, 1,
                130, 173, 177, 1,
                187, 155, 143, 1,
                214, 215, 244, 1
            ],
            "colorRange" : [
                7.2, 20, 80, 1,
                54, 15, 60, 1,
                18, 30, 50, 1,
                3.6, 15, 60, 1,
                18, 15, 15, 1
            ]
        }
    },
    "scoreboard": {
        "neutral": {
            "x": 5,
            "y": 70,
            "scale": 4.3
        },
        "Lucas1": {
            "scale": 1
        },
        "Lucas2": {
            "scale": 1
        },
        "Lucas3": {
            "scale": 1
        },
        "Lucas4": {
            "scale": 1
        },
        "Lucas5": {
            "scale": 1
        },
        "Lucas6": {
            "scale": 1
        },
        "Lucas7": {
            "scale": 1
        },
        "Lucas8": {
            "scale": 1
        }
    },
    "vsScreen": {
        "neutral": {
            "x": -550,
            "y": 200,
            "scale": 1.35
        },
        "Lucas1": {
            "x": -495,
            "y": 240,
            "scale": 1.35
        },
        "Lucas2": {
            "x": -495,
            "y": 240,
            "scale": 1.35
        },
        "Lucas3": {
            "x": -495,
            "y": 240,
            "scale": 1.35
        },
        "Lucas4": {
            "x": -495,
            "y": 240,
            "scale": 1.35
        },
        "Lucas5": {
            "x": -495,
            "y": 240,
            "scale": 1.35
        },
        "Lucas6": {
            "x": -495,
            "y": 240,
            "scale": 1.35
        },
        "Lucas7": {
            "x": -495,
            "y": 240,
            "scale": 1.35
        },
        "Lucas8": {
            "x": -495,
            "y": 240,
            "scale": 1.35
        }
    },
    "gui": {
        "neutral": {
            "x": 5,
            "y": 33,
            "scale": 5
        },
        "Lucas1": {
            "x": 10,
            "y": 43,
            "scale": 4.8
        },
        "Lucas2": {
            "x": 10,
            "y": 43,
            "scale": 4.8
        },
        "Lucas3": {
            "x": 10,
            "y": 43,
            "scale": 4.8
        },
        "Lucas4": {
            "x": 10,
            "y": 43,
            "scale": 4.8
        },
        "Lucas5": {
            "x": 10,
            "y": 43,
            "scale": 4.8
        },
        "Lucas6": {
            "x": 10,
            "y": 43,
            "scale": 4.8
        },
        "Lucas7": {
            "x": 10,
            "y": 43,
            "scale": 4.8
        },
        "Lucas8": {
            "x": 10,
            "y": 43,
            "scale": 4.8
        }
    }
}
