{
    "skinList": [
        {
            "name": "Pac-Man1"
        },
        {
            "name": "Pac-Man2"
        },
        {
            "name": "Pac-Man3"
        },
        {
            "name": "Pac-Man4"
        },
        {
            "name": "Pac-Man5"
        },
        {
            "name": "Pac-Man6"
        },
        {
            "name": "Pac-Man7"
        },
        {
            "name": "Pac-Man8"
        }
    ],
    "colorData" : {
        "Pac-Man1" : {
            "ogColor" : [
                120, 121, 161, 1,
                231, 121, 185, 1,
                130, 173, 177, 1,
                187, 155, 143, 1,
                214, 215, 244, 1
            ],
            "colorRange" : [
                7.2, 20, 80, 1,
                54, 15, 60, 1,
                18, 30, 50, 1,
                3.6, 15, 60, 1,
                18, 15, 15, 1
            ]
        },
        "Pac-Man2" : {
            "ogColor" : [
                120, 121, 161, 1,
                231, 121, 185, 1,
                130, 173, 177, 1,
                187, 155, 143, 1,
                214, 215, 244, 1
            ],
            "colorRange" : [
                7.2, 20, 80, 1,
                54, 15, 60, 1,
                18, 30, 50, 1,
                3.6, 15, 60, 1,
                18, 15, 15, 1
            ]
        },
        "Pac-Man3" : {
            "ogColor" : [
                120, 121, 161, 1,
                231, 121, 185, 1,
                130, 173, 177, 1,
                187, 155, 143, 1,
                214, 215, 244, 1
            ],
            "colorRange" : [
                7.2, 20, 80, 1,
                54, 15, 60, 1,
                18, 30, 50, 1,
                3.6, 15, 60, 1,
                18, 15, 15, 1
            ]
        },
        "Pac-Man4" : {
            "ogColor" : [
                120, 121, 161, 1,
                231, 121, 185, 1,
                130, 173, 177, 1,
                187, 155, 143, 1,
                214, 215, 244, 1
            ],
            "colorRange" : [
                7.2, 20, 80, 1,
                54, 15, 60, 1,
                18, 30, 50, 1,
                3.6, 15, 60, 1,
                18, 15, 15, 1
            ]
        },
        "Pac-Man5" : {
            "ogColor" : [
                120, 121, 161, 1,
                231, 121, 185, 1,
                130, 173, 177, 1,
                187, 155, 143, 1,
                214, 215, 244, 1
            ],
            "colorRange" : [
                7.2, 20, 80, 1,
                54, 15, 60, 1,
                18, 30, 50, 1,
                3.6, 15, 60, 1,
                18, 15, 15, 1
            ]
        },
        "Pac-Man6" : {
            "ogColor" : [
                120, 121, 161, 1,
                231, 121, 185, 1,
                130, 173, 177, 1,
                187, 155, 143, 1,
                214, 215, 244, 1
            ],
            "colorRange" : [
                7.2, 20, 80, 1,
                54, 15, 60, 1,
                18, 30, 50, 1,
                3.6, 15, 60, 1,
                18, 15, 15, 1
            ]
        },
        "Pac-Man7" : {
            "ogColor" : [
                120, 121, 161, 1,
                231, 121, 185, 1,
                130, 173, 177, 1,
                187, 155, 143, 1,
                214, 215, 244, 1
            ],
            "colorRange" : [
                7.2, 20, 80, 1,
                54, 15, 60, 1,
                18, 30, 50, 1,
                3.6, 15, 60, 1,
                18, 15, 15, 1
            ]
        },
        "Pac-Man8" : {
            "ogColor" : [
                120, 121, 161, 1,
                231, 121, 185, 1,
                130, 173, 177, 1,
                187, 155, 143, 1,
                214, 215, 244, 1
            ],
            "colorRange" : [
                7.2, 20, 80, 1,
                54, 15, 60, 1,
                18, 30, 50, 1,
                3.6, 15, 60, 1,
                18, 15, 15, 1
            ]
        }
    },
    "scoreboard": {
        "neutral": {
            "x": 5,
            "y": 70,
            "scale": 4.3
        },
        "Pac-Man1": {
            "scale": 1
        },
        "Pac-Man2": {
            "scale": 1
        },
        "Pac-Man3": {
            "scale": 1
        },
        "Pac-Man4": {
            "scale": 1
        },
        "Pac-Man5": {
            "scale": 1
        },
        "Pac-Man6": {
            "scale": 1
        },
        "Pac-Man7": {
            "scale": 1
        },
        "Pac-Man8": {
            "scale": 1
        }
    },
    "vsScreen": {
        "neutral": {
            "x": -550,
            "y": 200,
            "scale": 1.35
        },
        "Pac-Man1": {
            "x": -495,
            "y": 240,
            "scale": 1.35
        },
        "Pac-Man2": {
            "x": -495,
            "y": 240,
            "scale": 1.35
        },
        "Pac-Man3": {
            "x": -495,
            "y": 240,
            "scale": 1.35
        },
        "Pac-Man4": {
            "x": -495,
            "y": 240,
            "scale": 1.35
        },
        "Pac-Man5": {
            "x": -495,
            "y": 240,
            "scale": 1.35
        },
        "Pac-Man6": {
            "x": -495,
            "y": 240,
            "scale": 1.35
        },
        "Pac-Man7": {
            "x": -495,
            "y": 240,
            "scale": 1.35
        },
        "Pac-Man8": {
            "x": -495,
            "y": 240,
            "scale": 1.35
        }
    },
    "gui": {
        "neutral": {
            "x": 5,
            "y": 33,
            "scale": 5
        },
        "Pac-Man1": {
            "x": 10,
            "y": 43,
            "scale": 4.8
        },
        "Pac-Man2": {
            "x": 10,
            "y": 43,
            "scale": 4.8
        },
        "Pac-Man3": {
            "x": 10,
            "y": 43,
            "scale": 4.8
        },
        "Pac-Man4": {
            "x": 10,
            "y": 43,
            "scale": 4.8
        },
        "Pac-Man5": {
            "x": 10,
            "y": 43,
            "scale": 4.8
        },
        "Pac-Man6": {
            "x": 10,
            "y": 43,
            "scale": 4.8
        },
        "Pac-Man7": {
            "x": 10,
            "y": 43,
            "scale": 4.8
        },
        "Pac-Man8": {
            "x": 10,
            "y": 43,
            "scale": 4.8
        }
    }
}
