{
    "skinList": [
        {
            "name": "Lucina1"
        },
        {
            "name": "Lucina2"
        },
        {
            "name": "Lucina3"
        },
        {
            "name": "Lucina4"
        },
        {
            "name": "Lucina5"
        },
        {
            "name": "Lucina6"
        },
        {
            "name": "Lucina7"
        },
        {
            "name": "Lucina8"
        }
    ],
    "colorData" : {
        "Lucina1" : {
            "ogColor" : [
                120, 121, 161, 1,
                231, 121, 185, 1,
                130, 173, 177, 1,
                187, 155, 143, 1,
                214, 215, 244, 1
            ],
            "colorRange" : [
                7.2, 20, 80, 1,
                54, 15, 60, 1,
                18, 30, 50, 1,
                3.6, 15, 60, 1,
                18, 15, 15, 1
            ]
        },
        "Lucina2" : {
            "ogColor" : [
                120, 121, 161, 1,
                231, 121, 185, 1,
                130, 173, 177, 1,
                187, 155, 143, 1,
                214, 215, 244, 1
            ],
            "colorRange" : [
                7.2, 20, 80, 1,
                54, 15, 60, 1,
                18, 30, 50, 1,
                3.6, 15, 60, 1,
                18, 15, 15, 1
            ]
        },
        "Lucina3" : {
            "ogColor" : [
                120, 121, 161, 1,
                231, 121, 185, 1,
                130, 173, 177, 1,
                187, 155, 143, 1,
                214, 215, 244, 1
            ],
            "colorRange" : [
                7.2, 20, 80, 1,
                54, 15, 60, 1,
                18, 30, 50, 1,
                3.6, 15, 60, 1,
                18, 15, 15, 1
            ]
        },
        "Lucina4" : {
            "ogColor" : [
                120, 121, 161, 1,
                231, 121, 185, 1,
                130, 173, 177, 1,
                187, 155, 143, 1,
                214, 215, 244, 1
            ],
            "colorRange" : [
                7.2, 20, 80, 1,
                54, 15, 60, 1,
                18, 30, 50, 1,
                3.6, 15, 60, 1,
                18, 15, 15, 1
            ]
        },
        "Lucina5" : {
            "ogColor" : [
                120, 121, 161, 1,
                231, 121, 185, 1,
                130, 173, 177, 1,
                187, 155, 143, 1,
                214, 215, 244, 1
            ],
            "colorRange" : [
                7.2, 20, 80, 1,
                54, 15, 60, 1,
                18, 30, 50, 1,
                3.6, 15, 60, 1,
                18, 15, 15, 1
            ]
        },
        "Lucina6" : {
            "ogColor" : [
                120, 121, 161, 1,
                231, 121, 185, 1,
                130, 173, 177, 1,
                187, 155, 143, 1,
                214, 215, 244, 1
            ],
            "colorRange" : [
                7.2, 20, 80, 1,
                54, 15, 60, 1,
                18, 30, 50, 1,
                3.6, 15, 60, 1,
                18, 15, 15, 1
            ]
        },
        "Lucina7" : {
            "ogColor" : [
                120, 121, 161, 1,
                231, 121, 185, 1,
                130, 173, 177, 1,
                187, 155, 143, 1,
                214, 215, 244, 1
            ],
            "colorRange" : [
                7.2, 20, 80, 1,
                54, 15, 60, 1,
                18, 30, 50, 1,
                3.6, 15, 60, 1,
                18, 15, 15, 1
            ]
        },
        "Lucina8" : {
            "ogColor" : [
                120, 121, 161, 1,
                231, 121, 185, 1,
                130, 173, 177, 1,
                187, 155, 143, 1,
                214, 215, 244, 1
            ],
            "colorRange" : [
                7.2, 20, 80, 1,
                54, 15, 60, 1,
                18, 30, 50, 1,
                3.6, 15, 60, 1,
                18, 15, 15, 1
            ]
        }
    },
    "scoreboard": {
        "neutral": {
            "x": 5,
            "y": 70,
            "scale": 4.3
        },
        "Lucina1": {
            "scale": 1
        },
        "Lucina2": {
            "scale": 1
        },
        "Lucina3": {
            "scale": 1
        },
        "Lucina4": {
            "scale": 1
        },
        "Lucina5": {
            "scale": 1
        },
        "Lucina6": {
            "scale": 1
        },
        "Lucina7": {
            "scale": 1
        },
        "Lucina8": {
            "scale": 1
        }
    },
    "vsScreen": {
        "neutral": {
            "x": -550,
            "y": 200,
            "scale": 1.35
        },
        "Lucina1": {
            "x": -495,
            "y": 240,
            "scale": 1.35
        },
        "Lucina2": {
            "x": -495,
            "y": 240,
            "scale": 1.35
        },
        "Lucina3": {
            "x": -495,
            "y": 240,
            "scale": 1.35
        },
        "Lucina4": {
            "x": -495,
            "y": 240,
            "scale": 1.35
        },
        "Lucina5": {
            "x": -495,
            "y": 240,
            "scale": 1.35
        },
        "Lucina6": {
            "x": -495,
            "y": 240,
            "scale": 1.35
        },
        "Lucina7": {
            "x": -495,
            "y": 240,
            "scale": 1.35
        },
        "Lucina8": {
            "x": -495,
            "y": 240,
            "scale": 1.35
        }
    },
    "gui": {
        "neutral": {
            "x": 5,
            "y": 33,
            "scale": 5
        },
        "Lucina1": {
            "x": 10,
            "y": 43,
            "scale": 4.8
        },
        "Lucina2": {
            "x": 10,
            "y": 43,
            "scale": 4.8
        },
        "Lucina3": {
            "x": 10,
            "y": 43,
            "scale": 4.8
        },
        "Lucina4": {
            "x": 10,
            "y": 43,
            "scale": 4.8
        },
        "Lucina5": {
            "x": 10,
            "y": 43,
            "scale": 4.8
        },
        "Lucina6": {
            "x": 10,
            "y": 43,
            "scale": 4.8
        },
        "Lucina7": {
            "x": 10,
            "y": 43,
            "scale": 4.8
        },
        "Lucina8": {
            "x": 10,
            "y": 43,
            "scale": 4.8
        }
    }
}
