{
    "skinList": [
        {
            "name": "Villager1"
        },
        {
            "name": "Villager2"
        },
        {
            "name": "Villager3"
        },
        {
            "name": "Villager4"
        },
        {
            "name": "Villager5"
        },
        {
            "name": "Villager6"
        },
        {
            "name": "Villager7"
        },
        {
            "name": "Villager8"
        }
    ],
    "colorData" : {
        "Villager1" : {
            "ogColor" : [
                120, 121, 161, 1,
                231, 121, 185, 1,
                130, 173, 177, 1,
                187, 155, 143, 1,
                214, 215, 244, 1
            ],
            "colorRange" : [
                7.2, 20, 80, 1,
                54, 15, 60, 1,
                18, 30, 50, 1,
                3.6, 15, 60, 1,
                18, 15, 15, 1
            ]
        },
        "Villager2" : {
            "ogColor" : [
                120, 121, 161, 1,
                231, 121, 185, 1,
                130, 173, 177, 1,
                187, 155, 143, 1,
                214, 215, 244, 1
            ],
            "colorRange" : [
                7.2, 20, 80, 1,
                54, 15, 60, 1,
                18, 30, 50, 1,
                3.6, 15, 60, 1,
                18, 15, 15, 1
            ]
        },
        "Villager3" : {
            "ogColor" : [
                120, 121, 161, 1,
                231, 121, 185, 1,
                130, 173, 177, 1,
                187, 155, 143, 1,
                214, 215, 244, 1
            ],
            "colorRange" : [
                7.2, 20, 80, 1,
                54, 15, 60, 1,
                18, 30, 50, 1,
                3.6, 15, 60, 1,
                18, 15, 15, 1
            ]
        },
        "Villager4" : {
            "ogColor" : [
                120, 121, 161, 1,
                231, 121, 185, 1,
                130, 173, 177, 1,
                187, 155, 143, 1,
                214, 215, 244, 1
            ],
            "colorRange" : [
                7.2, 20, 80, 1,
                54, 15, 60, 1,
                18, 30, 50, 1,
                3.6, 15, 60, 1,
                18, 15, 15, 1
            ]
        },
        "Villager5" : {
            "ogColor" : [
                120, 121, 161, 1,
                231, 121, 185, 1,
                130, 173, 177, 1,
                187, 155, 143, 1,
                214, 215, 244, 1
            ],
            "colorRange" : [
                7.2, 20, 80, 1,
                54, 15, 60, 1,
                18, 30, 50, 1,
                3.6, 15, 60, 1,
                18, 15, 15, 1
            ]
        },
        "Villager6" : {
            "ogColor" : [
                120, 121, 161, 1,
                231, 121, 185, 1,
                130, 173, 177, 1,
                187, 155, 143, 1,
                214, 215, 244, 1
            ],
            "colorRange" : [
                7.2, 20, 80, 1,
                54, 15, 60, 1,
                18, 30, 50, 1,
                3.6, 15, 60, 1,
                18, 15, 15, 1
            ]
        },
        "Villager7" : {
            "ogColor" : [
                120, 121, 161, 1,
                231, 121, 185, 1,
                130, 173, 177, 1,
                187, 155, 143, 1,
                214, 215, 244, 1
            ],
            "colorRange" : [
                7.2, 20, 80, 1,
                54, 15, 60, 1,
                18, 30, 50, 1,
                3.6, 15, 60, 1,
                18, 15, 15, 1
            ]
        },
        "Villager8" : {
            "ogColor" : [
                120, 121, 161, 1,
                231, 121, 185, 1,
                130, 173, 177, 1,
                187, 155, 143, 1,
                214, 215, 244, 1
            ],
            "colorRange" : [
                7.2, 20, 80, 1,
                54, 15, 60, 1,
                18, 30, 50, 1,
                3.6, 15, 60, 1,
                18, 15, 15, 1
            ]
        }
    },
    "scoreboard": {
        "neutral": {
            "x": 5,
            "y": 70,
            "scale": 4.3
        },
        "Villager1": {
            "scale": 1
        },
        "Villager2": {
            "scale": 1
        },
        "Villager3": {
            "scale": 1
        },
        "Villager4": {
            "scale": 1
        },
        "Villager5": {
            "scale": 1
        },
        "Villager6": {
            "scale": 1
        },
        "Villager7": {
            "scale": 1
        },
        "Villager8": {
            "scale": 1
        }
    },
    "vsScreen": {
        "neutral": {
            "x": -550,
            "y": 200,
            "scale": 1.35
        },
        "Villager1": {
            "x": -495,
            "y": 240,
            "scale": 1.35
        },
        "Villager2": {
            "x": -495,
            "y": 240,
            "scale": 1.35
        },
        "Villager3": {
            "x": -495,
            "y": 240,
            "scale": 1.35
        },
        "Villager4": {
            "x": -495,
            "y": 240,
            "scale": 1.35
        },
        "Villager5": {
            "x": -495,
            "y": 240,
            "scale": 1.35
        },
        "Villager6": {
            "x": -495,
            "y": 240,
            "scale": 1.35
        },
        "Villager7": {
            "x": -495,
            "y": 240,
            "scale": 1.35
        },
        "Villager8": {
            "x": -495,
            "y": 240,
            "scale": 1.35
        }
    },
    "gui": {
        "neutral": {
            "x": 5,
            "y": 33,
            "scale": 5
        },
        "Villager1": {
            "x": 10,
            "y": 43,
            "scale": 4.8
        },
        "Villager2": {
            "x": 10,
            "y": 43,
            "scale": 4.8
        },
        "Villager3": {
            "x": 10,
            "y": 43,
            "scale": 4.8
        },
        "Villager4": {
            "x": 10,
            "y": 43,
            "scale": 4.8
        },
        "Villager5": {
            "x": 10,
            "y": 43,
            "scale": 4.8
        },
        "Villager6": {
            "x": 10,
            "y": 43,
            "scale": 4.8
        },
        "Villager7": {
            "x": 10,
            "y": 43,
            "scale": 4.8
        },
        "Villager8": {
            "x": 10,
            "y": 43,
            "scale": 4.8
        }
    }
}
